<?xml version="1.0" encoding="utf-8"?>
<!-- Generator: Adobe Illustrator 24.2.0, SVG Export Plug-In . SVG Version: 6.00 Build 0)  -->
<svg version="1.1" id="Layer_1" xmlns="http://www.w3.org/2000/svg" xmlns:xlink="http://www.w3.org/1999/xlink" x="0px" y="0px"
	 viewBox="0 0 24 24" style="enable-background:new 0 0 24 24;" xml:space="preserve">
<style type="text/css">
	.st0{fill:none;}
	.st1{fill:#FF7D9D;}
	.st2{fill:#F80040;}
</style>
<g>
	<path class="st0" d="M0,0h24v24H0V0z"/>
	<g id="XMLID_3_">
		<g>
			<path class="st1" d="M22,7.1v10c0,1.1-0.9,2-2,2H4c-1.1,0-2-0.9-2-2v-10c0-1.1,0.9-2,2-2h16C21.1,5.1,22,6,22,7.1z"/>
		</g>
		<g>
		</g>
	</g>
	<g id="XMLID_2_">
		<g>
			<rect x="2" y="8" class="st2" width="20" height="3"/>
		</g>
		<g>
		</g>
	</g>
	<g id="XMLID_1_">
		<g>
			<path class="st2" d="M19,14c0.5,0,1,0.4,1,1s-0.5,1-1,1h-2c-0.5,0-1-0.4-1-1s0.5-1,1-1H19z"/>
		</g>
		<g>
		</g>
	</g>
</g>
</svg>
