<svg id="Group" xmlns="http://www.w3.org/2000/svg" width="24" height="24" viewBox="0 0 24 24">
  <path id="Path_42" data-name="Path 42" d="M0,0H24V24H0Z" fill="none" fill-rule="evenodd"/>
  <path id="Path_43" data-name="Path 43" d="M18,14a3,3,0,1,1,3-3,3,3,0,0,1-3,3ZM9,11a4,4,0,1,1,4-4A4,4,0,0,1,9,11Z" fill="#ff7d9d" fill-rule="evenodd" opacity="0.3"/>
  <path id="Path_44" data-name="Path 44" d="M17.6,15c3.407.038,6.188,1.76,6.4,5.4a.509.509,0,0,1-.542.6H19.6A9.962,9.962,0,0,0,17.6,15ZM0,20.2C.388,15.426,4.26,13,8.983,13,13.771,13,17.7,15.293,18,20.2a.687.687,0,0,1-.751.8H.727A1.107,1.107,0,0,1,0,20.2Z" fill="#f80040" fill-rule="evenodd"/>
</svg>
