<svg id="Pause" xmlns="http://www.w3.org/2000/svg" width="24" height="24" viewBox="0 0 24 24">
  <path id="Path_45" data-name="Path 45" d="M0,0H24V24H0Z" fill="none" fill-rule="evenodd"/>
  <path id="Path_46" data-name="Path 46" d="M8,6h2a1,1,0,0,1,1,1V17a1,1,0,0,1-1,1H8a1,1,0,0,1-1-1V7A1,1,0,0,1,8,6Zm6,0h2a1,1,0,0,1,1,1V17a1,1,0,0,1-1,1H14a1,1,0,0,1-1-1V7A1,1,0,0,1,14,6Z" fill="#f80040" fill-rule="evenodd"/>
</svg>
